<?xml version="1.0" encoding="UTF-8" standalone="no"?>
<!-- Created with Inkscape (http://www.inkscape.org/) -->

<svg
   xmlns:dc="http://purl.org/dc/elements/1.1/"
   xmlns:cc="http://creativecommons.org/ns#"
   xmlns:rdf="http://www.w3.org/1999/02/22-rdf-syntax-ns#"
   xmlns:svg="http://www.w3.org/2000/svg"
   xmlns="http://www.w3.org/2000/svg"
   xmlns:sodipodi="http://sodipodi.sourceforge.net/DTD/sodipodi-0.dtd"
   xmlns:inkscape="http://www.inkscape.org/namespaces/inkscape"
   width="297mm"
   height="210mm"
   viewBox="0 0 297 210"
   version="1.1"
   id="svg434"
   inkscape:version="0.92.4 (5da689c313, 2019-01-14)"
   sodipodi:docname="Capitulo6Ejemplo1.1.svg">
  <defs
     id="defs428">
    <pattern
       y="0"
       x="0"
       height="6"
       width="6"
       patternUnits="userSpaceOnUse"
       id="EMFhbasepattern" />
    <pattern
       y="0"
       x="0"
       height="6"
       width="6"
       patternUnits="userSpaceOnUse"
       id="EMFhbasepattern-6" />
    <pattern
       y="0"
       x="0"
       height="6"
       width="6"
       patternUnits="userSpaceOnUse"
       id="EMFhbasepattern-4" />
    <pattern
       y="0"
       x="0"
       height="6"
       width="6"
       patternUnits="userSpaceOnUse"
       id="EMFhbasepattern-7" />
    <pattern
       y="0"
       x="0"
       height="6"
       width="6"
       patternUnits="userSpaceOnUse"
       id="EMFhbasepattern-61" />
    <pattern
       y="0"
       x="0"
       height="6"
       width="6"
       patternUnits="userSpaceOnUse"
       id="EMFhbasepattern-5" />
    <pattern
       y="0"
       x="0"
       height="6"
       width="6"
       patternUnits="userSpaceOnUse"
       id="EMFhbasepattern-78" />
    <pattern
       y="0"
       x="0"
       height="6"
       width="6"
       patternUnits="userSpaceOnUse"
       id="EMFhbasepattern-1" />
    <pattern
       y="0"
       x="0"
       height="6"
       width="6"
       patternUnits="userSpaceOnUse"
       id="EMFhbasepattern-8" />
  </defs>
  <sodipodi:namedview
     id="base"
     pagecolor="#ffffff"
     bordercolor="#666666"
     borderopacity="1.0"
     inkscape:pageopacity="0.0"
     inkscape:pageshadow="2"
     inkscape:zoom="0.7"
     inkscape:cx="492.7888"
     inkscape:cy="385.60675"
     inkscape:document-units="mm"
     inkscape:current-layer="layer1"
     showgrid="false"
     inkscape:window-width="1366"
     inkscape:window-height="705"
     inkscape:window-x="-8"
     inkscape:window-y="-8"
     inkscape:window-maximized="1" />
  <metadata
     id="metadata431">
    <rdf:RDF>
      <cc:Work
         rdf:about="">
        <dc:format>image/svg+xml</dc:format>
        <dc:type
           rdf:resource="http://purl.org/dc/dcmitype/StillImage" />
        <dc:title></dc:title>
      </cc:Work>
    </rdf:RDF>
  </metadata>
  <g
     inkscape:label="Capa 1"
     inkscape:groupmode="layer"
     id="layer1"
     transform="translate(0,-87)"
     style="display:inline">
    <g
       id="g3194"
       transform="translate(-70.677198,-47.047054)">
      <path
         inkscape:connector-curvature="0"
         id="path1325"
         d="m 156.47966,235.39422 121.2831,-28.33378"
         style="fill:none;stroke:#0c7cba;stroke-width:0.56500006;stroke-linecap:butt;stroke-linejoin:miter;stroke-miterlimit:4;stroke-dasharray:none;stroke-opacity:1" />
      <path
         sodipodi:nodetypes="csc"
         inkscape:connector-curvature="0"
         id="path1335"
         d="m 263.61861,259.73557 c 0,0 -7.14421,20.57742 -39.134,20.95262 -31.98146,0.37512 -65.36372,5.36468 -71.90095,-18.9029"
         style="fill:none;stroke:#0c7cba;stroke-width:0.56223285;stroke-linecap:butt;stroke-linejoin:miter;stroke-miterlimit:4;stroke-dasharray:1.68669845, 1.68669845;stroke-dashoffset:0;stroke-opacity:1" />
      <g
         id="g1368-14"
         transform="matrix(-0.99998768,-0.00588937,0.00861313,-2.059181,363.88394,601.7892)">
        <path
           style="fill:none;stroke:#000000;stroke-width:0.565;stroke-linecap:butt;stroke-linejoin:miter;stroke-miterlimit:4;stroke-dasharray:none;stroke-opacity:1"
           d="m 100.09244,174.7242 0.26727,12.56166"
           id="path1329-81"
           inkscape:connector-curvature="0" />
        <text
           id="text1350-76"
           y="189.98271"
           x="98.743851"
           style="font-style:normal;font-variant:normal;font-weight:400;font-size:3.88606763px;line-height:125%;font-family:'Segoe UI Emoji';text-align:start;letter-spacing:0px;word-spacing:0px;text-anchor:start;fill:#000000;fill-opacity:1;stroke:none;stroke-width:0.26458332"
           xml:space="preserve"><tspan
             id="tspan1348-63"
             y="189.98271"
             x="98.743851"
             sodipodi:role="line"
             style="stroke-width:0.26458332"><tspan
               id="tspan1344-4"
               style="font-style:normal;font-variant:normal;font-weight:400;font-size:3.88606763px;font-family:'Segoe UI Emoji';fill:#000000;stroke-width:0.26458332"
               dy="0"
               dx="0">▼</tspan><tspan
               id="tspan1346-46"
               style="font-style:normal;font-variant:normal;font-weight:400;font-size:3.88606763px;font-family:Calibri;fill:#000000;stroke-width:0.26458332"
               dy="0"
               dx="0"> </tspan></tspan></text>
      </g>
      <g
         id="g1683"
         transform="matrix(0.84087945,0,0,1,74.571933,67.216527)">
        <path
           style="fill:none;stroke:#000000;stroke-width:0.565;stroke-linecap:butt;stroke-linejoin:miter;stroke-miterlimit:4;stroke-dasharray:none;stroke-opacity:1"
           d="m 89.26802,174.32329 c 149.67093,0.26727 149.67093,0.26727 149.67093,0.26727"
           id="path514"
           inkscape:connector-curvature="0" />
        <text
           id="text1665"
           y="142.8988"
           x="296.71558"
           style="font-style:normal;font-variant:normal;font-weight:400;font-size:7.60175419px;line-height:125%;font-family:'Segoe UI Emoji';text-align:start;letter-spacing:0px;word-spacing:0px;text-anchor:start;fill:#000000;fill-opacity:1;stroke:none;stroke-width:0.51756626"
           xml:space="preserve"
           transform="scale(0.80391189,1.2439174)"><tspan
             id="tspan1663"
             y="142.8988"
             x="296.71558"
             sodipodi:role="line"
             style="stroke-width:0.51756626"><tspan
               id="tspan1659"
               style="font-style:normal;font-variant:normal;font-weight:400;font-size:7.60175419px;font-family:'Segoe UI Emoji';fill:#000000;stroke-width:0.51756626"
               dy="0"
               dx="0">►</tspan><tspan
               id="tspan1661"
               style="font-style:normal;font-variant:normal;font-weight:400;font-size:7.60175419px;font-family:Calibri;fill:#000000;stroke-width:0.51756626"
               dy="0"
               dx="0"> </tspan></tspan></text>
      </g>
      <text
         transform="scale(0.96962495,1.0313266)"
         id="text1787"
         y="240.76735"
         x="153.78011"
         style="font-style:normal;font-weight:normal;font-size:4.61203337px;line-height:1.25;font-family:sans-serif;letter-spacing:0px;word-spacing:0px;fill:#000000;fill-opacity:1;stroke:none;stroke-width:0.11530083"
         xml:space="preserve"><tspan
           style="stroke-width:0.11530083"
           y="240.76735"
           x="153.78011"
           id="tspan1785"
           sodipodi:role="line">0</tspan></text>
      <text
         transform="scale(0.96962495,1.0313266)"
         id="text1787-5"
         y="240.67279"
         x="168.70438"
         style="font-style:normal;font-weight:normal;font-size:4.61203337px;line-height:1.25;font-family:sans-serif;letter-spacing:0px;word-spacing:0px;fill:#000000;fill-opacity:1;stroke:none;stroke-width:0.11530083"
         xml:space="preserve"><tspan
           id="tspan1879"
           style="stroke-width:0.11530083"
           y="240.67279"
           x="168.70438"
           sodipodi:role="line">1</tspan></text>
      <text
         transform="scale(0.96962495,1.0313266)"
         id="text1787-3"
         y="241.32068"
         x="188.82625"
         style="font-style:normal;font-weight:normal;font-size:4.61203337px;line-height:1.25;font-family:sans-serif;letter-spacing:0px;word-spacing:0px;fill:#000000;fill-opacity:1;stroke:none;stroke-width:0.11530083"
         xml:space="preserve"><tspan
           style="stroke-width:0.11530083"
           y="241.32068"
           x="188.82625"
           id="tspan1785-2"
           sodipodi:role="line">2</tspan></text>
      <text
         transform="scale(0.96962495,1.0313266)"
         id="text1787-1"
         y="241.19109"
         x="207.70776"
         style="font-style:normal;font-weight:normal;font-size:4.61203337px;line-height:1.25;font-family:sans-serif;letter-spacing:0px;word-spacing:0px;fill:#000000;fill-opacity:1;stroke:none;stroke-width:0.11530083"
         xml:space="preserve"><tspan
           style="stroke-width:0.11530083"
           y="241.19109"
           x="207.70776"
           id="tspan1785-7"
           sodipodi:role="line">3</tspan></text>
      <text
         transform="scale(0.96962495,1.0313266)"
         id="text1787-34"
         y="240.80235"
         x="228.93219"
         style="font-style:normal;font-weight:normal;font-size:4.61203337px;line-height:1.25;font-family:sans-serif;letter-spacing:0px;word-spacing:0px;fill:#000000;fill-opacity:1;stroke:none;stroke-width:0.11530083"
         xml:space="preserve"><tspan
           style="stroke-width:0.11530083"
           y="240.80235"
           x="228.93219"
           id="tspan1785-74"
           sodipodi:role="line">4</tspan></text>
      <text
         transform="scale(0.96962495,1.0313266)"
         id="text1787-14"
         y="242.22769"
         x="251.53485"
         style="font-style:normal;font-weight:normal;font-size:4.61203337px;line-height:1.25;font-family:sans-serif;letter-spacing:0px;word-spacing:0px;fill:#000000;fill-opacity:1;stroke:none;stroke-width:0.11530083"
         xml:space="preserve"><tspan
           style="stroke-width:0.11530083"
           y="242.22769"
           x="251.53485"
           id="tspan1785-3"
           sodipodi:role="line">5</tspan></text>
      <text
         transform="scale(0.96962495,1.0313266)"
         id="text1787-2"
         y="242.35727"
         x="274.13751"
         style="font-style:normal;font-weight:normal;font-size:4.61203337px;line-height:1.25;font-family:sans-serif;letter-spacing:0px;word-spacing:0px;fill:#000000;fill-opacity:1;stroke:none;stroke-width:0.11530083"
         xml:space="preserve"><tspan
           style="stroke-width:0.11530083"
           y="242.35727"
           x="274.13751"
           id="tspan1785-4"
           sodipodi:role="line">6   pav</tspan></text>
      <text
         xml:space="preserve"
         style="font-style:normal;font-variant:normal;font-weight:400;font-size:3.88606763px;line-height:125%;font-family:Calibri;text-align:start;letter-spacing:0px;word-spacing:0px;text-anchor:start;fill:#000000;fill-opacity:1;stroke:none;stroke-width:0.26458332"
         x="136.9192"
         y="167.14694"
         id="text1894"><tspan
           style="stroke-width:0.26458332"
           sodipodi:role="line"
           x="136.9192"
           y="167.14694"
           id="tspan1892"><tspan
             dx="0"
             dy="0"
             style="font-style:normal;font-variant:normal;font-weight:400;font-size:3.88606763px;font-family:Calibri;fill:#000000;stroke-width:0.26458332"
             id="tspan1890"> </tspan></tspan></text>
      <g
         style="display:inline"
         id="g1368-14-4"
         transform="matrix(-0.99998768,-0.00508839,0.00861313,-1.7791239,344.05995,553.12487)">
        <path
           style="fill:none;stroke:#000000;stroke-width:0.565;stroke-linecap:butt;stroke-linejoin:miter;stroke-miterlimit:4;stroke-dasharray:none;stroke-opacity:1"
           d="m 100.09244,174.7242 0.26727,12.56166"
           id="path1329-81-2"
           inkscape:connector-curvature="0" />
        <text
           id="text1350-76-5"
           y="189.98271"
           x="98.743851"
           style="font-style:normal;font-variant:normal;font-weight:400;font-size:3.88606763px;line-height:125%;font-family:'Segoe UI Emoji';text-align:start;letter-spacing:0px;word-spacing:0px;text-anchor:start;fill:#000000;fill-opacity:1;stroke:none;stroke-width:0.26458332"
           xml:space="preserve"><tspan
             id="tspan1348-63-4"
             y="189.98271"
             x="98.743851"
             sodipodi:role="line"
             style="stroke-width:0.26458332"><tspan
               id="tspan1344-4-8"
               style="font-style:normal;font-variant:normal;font-weight:400;font-size:3.88606763px;font-family:'Segoe UI Emoji';fill:#000000;stroke-width:0.26458332"
               dy="0"
               dx="0">▼</tspan><tspan
               id="tspan1346-46-8"
               style="font-style:normal;font-variant:normal;font-weight:400;font-size:3.88606763px;font-family:Calibri;fill:#000000;stroke-width:0.26458332"
               dy="0"
               dx="0"> </tspan></tspan></text>
      </g>
      <g
         style="display:inline"
         id="g1368-14-1"
         transform="matrix(-0.99998768,-0.00408717,0.00861313,-1.4290526,322.67839,491.45964)">
        <path
           style="fill:none;stroke:#000000;stroke-width:0.565;stroke-linecap:butt;stroke-linejoin:miter;stroke-miterlimit:4;stroke-dasharray:none;stroke-opacity:1"
           d="m 100.09244,174.7242 0.26727,12.56166"
           id="path1329-81-3"
           inkscape:connector-curvature="0" />
        <text
           id="text1350-76-2"
           y="189.98271"
           x="98.743851"
           style="font-style:normal;font-variant:normal;font-weight:400;font-size:3.88606763px;line-height:125%;font-family:'Segoe UI Emoji';text-align:start;letter-spacing:0px;word-spacing:0px;text-anchor:start;fill:#000000;fill-opacity:1;stroke:none;stroke-width:0.26458332"
           xml:space="preserve"><tspan
             id="tspan1348-63-3"
             y="189.98271"
             x="98.743851"
             sodipodi:role="line"
             style="stroke-width:0.26458332"><tspan
               id="tspan1344-4-5"
               style="font-style:normal;font-variant:normal;font-weight:400;font-size:3.88606763px;font-family:'Segoe UI Emoji';fill:#000000;stroke-width:0.26458332"
               dy="0"
               dx="0">▼</tspan><tspan
               id="tspan1346-46-4"
               style="font-style:normal;font-variant:normal;font-weight:400;font-size:3.88606763px;font-family:Calibri;fill:#000000;stroke-width:0.26458332"
               dy="0"
               dx="0"> </tspan></tspan></text>
      </g>
      <g
         style="display:inline"
         id="g1368-14-3"
         transform="matrix(-0.99998768,-0.00306091,0.00861313,-1.0702294,301.69773,428.39644)">
        <path
           style="fill:none;stroke:#000000;stroke-width:0.565;stroke-linecap:butt;stroke-linejoin:miter;stroke-miterlimit:4;stroke-dasharray:none;stroke-opacity:1"
           d="m 100.09244,174.7242 0.26727,12.56166"
           id="path1329-81-4"
           inkscape:connector-curvature="0" />
        <text
           id="text1350-76-4"
           y="189.98271"
           x="98.743851"
           style="font-style:normal;font-variant:normal;font-weight:400;font-size:3.88606763px;line-height:125%;font-family:'Segoe UI Emoji';text-align:start;letter-spacing:0px;word-spacing:0px;text-anchor:start;fill:#000000;fill-opacity:1;stroke:none;stroke-width:0.26458332"
           xml:space="preserve"><tspan
             id="tspan1348-63-6"
             y="189.98271"
             x="98.743851"
             sodipodi:role="line"
             style="stroke-width:0.26458332"><tspan
               id="tspan1344-4-1"
               style="font-style:normal;font-variant:normal;font-weight:400;font-size:3.88606763px;font-family:'Segoe UI Emoji';fill:#000000;stroke-width:0.26458332"
               dy="0"
               dx="0">▼</tspan><tspan
               id="tspan1346-46-6"
               style="font-style:normal;font-variant:normal;font-weight:400;font-size:3.88606763px;font-family:Calibri;fill:#000000;stroke-width:0.26458332"
               dy="0"
               dx="0"> </tspan></tspan></text>
      </g>
      <g
         style="display:inline"
         id="g1368-14-2"
         transform="matrix(-0.99998768,-0.00215982,0.00861313,-0.75516499,282.58797,373.25849)">
        <path
           style="fill:none;stroke:#000000;stroke-width:0.565;stroke-linecap:butt;stroke-linejoin:miter;stroke-miterlimit:4;stroke-dasharray:none;stroke-opacity:1"
           d="m 100.09244,174.7242 0.26727,12.56166"
           id="path1329-81-6"
           inkscape:connector-curvature="0" />
        <text
           id="text1350-76-9"
           y="189.98271"
           x="98.743851"
           style="font-style:normal;font-variant:normal;font-weight:400;font-size:3.88606763px;line-height:125%;font-family:'Segoe UI Emoji';text-align:start;letter-spacing:0px;word-spacing:0px;text-anchor:start;fill:#000000;fill-opacity:1;stroke:none;stroke-width:0.26458332"
           xml:space="preserve"><tspan
             id="tspan1348-63-1"
             y="189.98271"
             x="98.743851"
             sodipodi:role="line"
             style="stroke-width:0.26458332"><tspan
               id="tspan1344-4-7"
               style="font-style:normal;font-variant:normal;font-weight:400;font-size:3.88606763px;font-family:'Segoe UI Emoji';fill:#000000;stroke-width:0.26458332"
               dy="0"
               dx="0">▼</tspan><tspan
               id="tspan1346-46-9"
               style="font-style:normal;font-variant:normal;font-weight:400;font-size:3.88606763px;font-family:Calibri;fill:#000000;stroke-width:0.26458332"
               dy="0"
               dx="0"> </tspan></tspan></text>
        <text
           id="text4655"
           y="-104.93712"
           x="78.052254"
           transform="matrix(-0.5963577,0.82970054,-0.63214825,-0.79735074,0,0)"
           style="font-style:normal;font-variant:normal;font-weight:400;font-size:4.47184515px;line-height:125%;font-family:'Segoe UI Emoji';text-align:start;letter-spacing:0px;word-spacing:0px;text-anchor:start;fill:#0c7cba;fill-opacity:1;stroke:none;stroke-width:0.30446607"
           xml:space="preserve"><tspan
             id="tspan4653"
             y="-104.93712"
             x="78.052254"
             sodipodi:role="line"
             style="fill:#0c7cba;fill-opacity:1;stroke-width:0.30446607"><tspan
               id="tspan4649"
               style="font-style:normal;font-variant:normal;font-weight:400;font-size:4.47184515px;font-family:'Segoe UI Emoji';fill:#0c7cba;fill-opacity:1;stroke-width:0.30446607"
               dy="0"
               dx="0">▼</tspan><tspan
               id="tspan4651"
               style="font-style:normal;font-variant:normal;font-weight:400;font-size:4.47184515px;font-family:Calibri;fill:#0c7cba;fill-opacity:1;stroke-width:0.30446607"
               dy="0"
               dx="0"> </tspan></tspan></text>
      </g>
      <g
         style="display:inline"
         id="g1368-14-17"
         transform="matrix(-0.99998768,-0.00143392,0.00861313,-0.50136323,263.47819,329.51002)">
        <path
           style="fill:none;stroke:#000000;stroke-width:0.565;stroke-linecap:butt;stroke-linejoin:miter;stroke-miterlimit:4;stroke-dasharray:none;stroke-opacity:1"
           d="m 100.09244,174.7242 0.26727,12.56166"
           id="path1329-81-65"
           inkscape:connector-curvature="0" />
        <text
           id="text1350-76-98"
           y="189.98271"
           x="98.743851"
           style="font-style:normal;font-variant:normal;font-weight:400;font-size:3.88606763px;line-height:125%;font-family:'Segoe UI Emoji';text-align:start;letter-spacing:0px;word-spacing:0px;text-anchor:start;fill:#000000;fill-opacity:1;stroke:none;stroke-width:0.26458332"
           xml:space="preserve"><tspan
             id="tspan1348-63-0"
             y="189.98271"
             x="98.743851"
             sodipodi:role="line"
             style="stroke-width:0.26458332"><tspan
               id="tspan1344-4-9"
               style="font-style:normal;font-variant:normal;font-weight:400;font-size:3.88606763px;font-family:'Segoe UI Emoji';fill:#000000;stroke-width:0.26458332"
               dy="0"
               dx="0">▼</tspan><tspan
               id="tspan1346-46-7"
               style="font-style:normal;font-variant:normal;font-weight:400;font-size:3.88606763px;font-family:Calibri;fill:#000000;stroke-width:0.26458332"
               dy="0"
               dx="0"> </tspan></tspan></text>
      </g>
      <text
         id="text4166"
         y="263.95053"
         x="203.53928"
         style="font-style:normal;font-variant:normal;font-weight:400;font-size:6.3499999px;line-height:125%;font-family:'Cambria Math';text-align:start;letter-spacing:0px;word-spacing:0px;text-anchor:start;fill:#000000;fill-opacity:1;stroke:none;stroke-width:0.26458332"
         xml:space="preserve"><tspan
           id="tspan4164"
           y="263.95053"
           x="203.53928"
           sodipodi:role="line"
           style="font-size:6.3499999px;stroke-width:0.26458332">L=$25</tspan></text>
      <text
         xml:space="preserve"
         style="font-style:normal;font-weight:normal;font-size:10.58333302px;line-height:1.25;font-family:sans-serif;letter-spacing:0px;word-spacing:0px;fill:#000000;fill-opacity:1;stroke:none;stroke-width:0.26458332"
         x="212.59731"
         y="269.47885"
         id="text4184"><tspan
           sodipodi:role="line"
           id="tspan4182"
           x="212.59731"
           y="279.13434"
           style="stroke-width:0.26458332"></tspan></text>
      <text
         id="text4201"
         y="270.89951"
         x="198.72841"
         style="font-style:normal;font-variant:normal;font-weight:400;font-size:3.88606763px;line-height:125%;font-family:'Cambria Math';text-align:start;letter-spacing:0px;word-spacing:0px;text-anchor:start;fill:#000000;fill-opacity:1;stroke:none;stroke-width:0.26458332"
         xml:space="preserve"><tspan
           id="tspan4199"
           y="270.89951"
           x="198.72841"
           sodipodi:role="line"
           style="font-size:6.3499999px;stroke-width:0.26458332">n=6 pav</tspan></text>
      <text
         id="text4263"
         y="232.76768"
         x="135.16806"
         style="font-style:normal;font-variant:normal;font-weight:400;font-size:6.3499999px;line-height:125%;font-family:'Cambria Math';text-align:start;letter-spacing:0px;word-spacing:0px;text-anchor:start;fill:#000000;fill-opacity:1;stroke:none;stroke-width:0.26458332"
         xml:space="preserve"><tspan
           id="tspan4261"
           y="232.76768"
           x="135.16806"
           sodipodi:role="line"
           style="font-size:4.93888903px;stroke-width:0.26458332"><tspan
             id="tspan4251"
             style="font-style:normal;font-variant:normal;font-weight:400;font-size:4.93888903px;font-family:'Cambria Math';fill:#000000;stroke-width:0.26458332"
             dy="0 1.2697735 -1.2697735 0"
             dx="0 -0.3074874 2.1900511 2.9738886">𝑅1=$100</tspan><tspan
             id="tspan4259"
             style="font-style:normal;font-variant:normal;font-weight:400;font-size:4.93888903px;font-family:Arial;fill:#000000;stroke-width:0.26458332"
             dy="0"
             dx="0"> </tspan></tspan></text>
      <text
         id="text4479"
         y="224.8604"
         x="154.29976"
         style="font-style:normal;font-variant:normal;font-weight:400;font-size:4.94440126px;line-height:125%;font-family:'Cambria Math';text-align:start;letter-spacing:0px;word-spacing:0px;text-anchor:start;fill:#000000;fill-opacity:1;stroke:none;stroke-width:0.26458332"
         xml:space="preserve"><tspan
           id="tspan4477"
           y="224.8604"
           x="154.29976"
           sodipodi:role="line"
           style="stroke-width:0.26458332"><tspan
             id="tspan4467"
             style="font-style:normal;font-variant:normal;font-weight:400;font-size:4.94440126px;font-family:'Cambria Math';fill:#000000;stroke-width:0.26458332"
             dy="0"
             dx="0">𝑅</tspan><tspan
             id="tspan4469"
             style="font-style:normal;font-variant:normal;font-weight:400;font-size:3.52226567px;font-family:'Cambria Math';fill:#000000;stroke-width:0.26458332"
             dy="0.98760146"
             dx="0">2</tspan><tspan
             id="tspan4471"
             style="font-style:normal;font-variant:normal;font-weight:400;font-size:4.94440126px;font-family:'Cambria Math';fill:#000000;stroke-width:0.26458332"
             dy="-0.98760146"
             dx="1.5768315">=</tspan><tspan
             id="tspan4473"
             style="font-style:normal;font-variant:normal;font-weight:400;font-size:4.94440126px;font-family:'Cambria Math';fill:#000000;stroke-width:0.26458332"
             dy="0"
             dx="2.3413246">$125</tspan><tspan
             id="tspan4475"
             style="font-style:normal;font-variant:normal;font-weight:400;font-size:4.94440126px;font-family:Arial;fill:#000000;stroke-width:0.26458332"
             dy="0"
             dx="0"> </tspan></tspan></text>
      <text
         id="text4510"
         y="221.10487"
         x="182.63033"
         style="font-style:normal;font-variant:normal;font-weight:400;font-size:4.94440126px;line-height:125%;font-family:'Cambria Math';text-align:start;letter-spacing:0px;word-spacing:0px;text-anchor:start;fill:#000000;fill-opacity:1;stroke:none;stroke-width:0.26458332"
         xml:space="preserve"><tspan
           id="tspan4508"
           y="221.10487"
           x="182.63033"
           sodipodi:role="line"
           style="stroke-width:0.26458332"><tspan
             id="tspan4498"
             style="font-style:normal;font-variant:normal;font-weight:400;font-size:4.94440126px;font-family:'Cambria Math';fill:#000000;stroke-width:0.26458332"
             dy="0"
             dx="0">𝑅</tspan><tspan
             id="tspan4500"
             style="font-style:normal;font-variant:normal;font-weight:400;font-size:3.52226567px;font-family:'Cambria Math';fill:#000000;stroke-width:0.26458332"
             dy="0.98760146"
             dx="0">3</tspan><tspan
             id="tspan4502"
             style="font-style:normal;font-variant:normal;font-weight:400;font-size:4.94440126px;font-family:'Cambria Math';fill:#000000;stroke-width:0.26458332"
             dy="-0.98760146"
             dx="1.5768315">=</tspan><tspan
             id="tspan4504"
             style="font-style:normal;font-variant:normal;font-weight:400;font-size:4.94440126px;font-family:'Cambria Math';fill:#000000;stroke-width:0.26458332"
             dy="0"
             dx="2.3413246">$150</tspan><tspan
             id="tspan4506"
             style="font-style:normal;font-variant:normal;font-weight:400;font-size:4.94440126px;font-family:Arial;fill:#000000;stroke-width:0.26458332"
             dy="0"
             dx="0"> </tspan></tspan></text>
      <text
         id="text4543"
         y="212.9669"
         x="205.48187"
         style="font-style:normal;font-variant:normal;font-weight:400;font-size:4.94440126px;line-height:125%;font-family:'Cambria Math';text-align:start;letter-spacing:0px;word-spacing:0px;text-anchor:start;fill:#000000;fill-opacity:1;stroke:none;stroke-width:0.26458332"
         xml:space="preserve"><tspan
           id="tspan4541"
           y="212.9669"
           x="205.48187"
           sodipodi:role="line"
           style="stroke-width:0.26458332"><tspan
             id="tspan4529"
             style="font-style:normal;font-variant:normal;font-weight:400;font-size:4.94440126px;font-family:'Cambria Math';fill:#000000;stroke-width:0.26458332"
             dy="0"
             dx="0">𝑅</tspan><tspan
             id="tspan4531"
             style="font-style:normal;font-variant:normal;font-weight:400;font-size:3.52226567px;font-family:'Cambria Math';fill:#000000;stroke-width:0.26458332"
             dy="0.98760146"
             dx="0">4</tspan><tspan
             id="tspan4533"
             style="font-style:normal;font-variant:normal;font-weight:400;font-size:4.94440126px;font-family:'Cambria Math';fill:#000000;stroke-width:0.26458332"
             dy="-0.98760146"
             dx="1.5768315">=</tspan><tspan
             id="tspan4535"
             style="font-style:normal;font-variant:normal;font-weight:400;font-size:4.94440126px;font-family:'Cambria Math';fill:#000000;stroke-width:0.26458332"
             dy="0"
             dx="2.3413246">$17</tspan><tspan
             id="tspan4537"
             style="font-style:normal;font-variant:normal;font-weight:400;font-size:4.94440126px;font-family:'Cambria Math';fill:#000000;stroke-width:0.26458332"
             dy="0"
             dx="0">5</tspan><tspan
             id="tspan4539"
             style="font-style:normal;font-variant:normal;font-weight:400;font-size:4.94440126px;font-family:Arial;fill:#000000;stroke-width:0.26458332"
             dy="0"
             dx="0"> </tspan></tspan></text>
      <text
         id="text4575"
         y="204.66779"
         x="230.60519"
         style="font-style:normal;font-variant:normal;font-weight:400;font-size:4.94440126px;line-height:125%;font-family:'Cambria Math';text-align:start;letter-spacing:0px;word-spacing:0px;text-anchor:start;fill:#000000;fill-opacity:1;stroke:none;stroke-width:0.26458332"
         xml:space="preserve"><tspan
           id="tspan4573"
           y="204.66779"
           x="230.60519"
           sodipodi:role="line"
           style="stroke-width:0.26458332"><tspan
             id="tspan4563"
             style="font-style:normal;font-variant:normal;font-weight:400;font-size:4.94440126px;font-family:'Cambria Math';fill:#000000;stroke-width:0.26458332"
             dy="0"
             dx="0">𝑅</tspan><tspan
             id="tspan4565"
             style="font-style:normal;font-variant:normal;font-weight:400;font-size:3.52226567px;font-family:'Cambria Math';fill:#000000;stroke-width:0.26458332"
             dy="0.98760146"
             dx="0">5</tspan><tspan
             id="tspan4567"
             style="font-style:normal;font-variant:normal;font-weight:400;font-size:4.94440126px;font-family:'Cambria Math';fill:#000000;stroke-width:0.26458332"
             dy="-0.98760146"
             dx="1.5768315">=</tspan><tspan
             id="tspan4569"
             style="font-style:normal;font-variant:normal;font-weight:400;font-size:4.94440126px;font-family:'Cambria Math';fill:#000000;stroke-width:0.26458332"
             dy="0"
             dx="2.3413246">$200</tspan><tspan
             id="tspan4571"
             style="font-style:normal;font-variant:normal;font-weight:400;font-size:4.94440126px;font-family:Arial;fill:#000000;stroke-width:0.26458332"
             dy="0"
             dx="0"> </tspan></tspan></text>
      <text
         id="text4606"
         y="204.26689"
         x="262.27664"
         style="font-style:normal;font-variant:normal;font-weight:400;font-size:4.94440126px;line-height:125%;font-family:'Cambria Math';text-align:start;letter-spacing:0px;word-spacing:0px;text-anchor:start;fill:#000000;fill-opacity:1;stroke:none;stroke-width:0.26458332"
         xml:space="preserve"><tspan
           id="tspan4604"
           y="204.26689"
           x="262.27664"
           sodipodi:role="line"
           style="stroke-width:0.26458332"><tspan
             id="tspan4594"
             style="font-style:normal;font-variant:normal;font-weight:400;font-size:4.94440126px;font-family:'Cambria Math';fill:#000000;stroke-width:0.26458332"
             dy="0"
             dx="0">𝑅</tspan><tspan
             id="tspan4596"
             style="font-style:normal;font-variant:normal;font-weight:400;font-size:3.52226567px;font-family:'Cambria Math';fill:#000000;stroke-width:0.26458332"
             dy="0.98760146"
             dx="0">6</tspan><tspan
             id="tspan4598"
             style="font-style:normal;font-variant:normal;font-weight:400;font-size:4.94440126px;font-family:'Cambria Math';fill:#000000;stroke-width:0.26458332"
             dy="-0.98760146"
             dx="1.5768315">=</tspan><tspan
             id="tspan4600"
             style="font-style:normal;font-variant:normal;font-weight:400;font-size:4.94440126px;font-family:'Cambria Math';fill:#000000;stroke-width:0.26458332"
             dy="0"
             dx="2.3413246">$225</tspan><tspan
             id="tspan4602"
             style="font-style:normal;font-variant:normal;font-weight:400;font-size:4.94440126px;font-family:Arial;fill:#000000;stroke-width:0.26458332"
             dy="0"
             dx="0"> </tspan></tspan></text>
    </g>
  </g>
</svg>
